<svg width="30" height="30" viewBox="0 0 30 30" fill="none" xmlns="http://www.w3.org/2000/svg">
<path fill-rule="evenodd" clip-rule="evenodd" d="M0 25.5C0 27.9853 2.01472 30 4.5 30H25.5C27.9853 30 30 27.9853 30 25.5V4.5C30 2.01472 27.9853 0 25.5 0H4.5C2.01472 0 0 2.01472 0 4.5V25.5ZM27 25.5C27 26.3284 26.3284 27 25.5 27H4.5C3.67157 27 3 26.3284 3 25.5V4.5C3 3.67157 3.67157 3 4.5 3H12V15.0166L15.5925 15.0168L18.0001 11.7963L20.4076 15.0168H24.0002L24 3H25.5C26.3284 3 27 3.67157 27 4.5V25.5ZM21 3H15V11.0038L18.0001 6.99069L21 11.0036V3Z" fill="#FF9900"/>
<path fill-rule="evenodd" clip-rule="evenodd" d="M0 25.5C0 27.9853 2.01472 30 4.5 30H25.5C27.9853 30 30 27.9853 30 25.5V4.5C30 2.01472 27.9853 0 25.5 0H4.5C2.01472 0 0 2.01472 0 4.5V25.5ZM27 25.5C27 26.3284 26.3284 27 25.5 27H4.5C3.67157 27 3 26.3284 3 25.5V4.5C3 3.67157 3.67157 3 4.5 3H12V15.0166L15.5925 15.0168L18.0001 11.7963L20.4076 15.0168H24.0002L24 3H25.5C26.3284 3 27 3.67157 27 4.5V25.5ZM21 3H15V11.0038L18.0001 6.99069L21 11.0036V3Z" fill="url(#paint0_linear)" fill-opacity="0.35"/>
<defs>
<linearGradient id="paint0_linear" x1="28.2353" y1="23.8235" x2="4.41177" y2="4.41176" gradientUnits="userSpaceOnUse">
<stop stop-color="white"/>
<stop offset="1" stop-color="white" stop-opacity="0"/>
</linearGradient>
</defs>
</svg>
