<svg width="16" height="16" viewBox="0 0 16 16" fill="none" xmlns="http://www.w3.org/2000/svg">
<path d="M2 4C2.74028 4 3.38663 3.5978 3.73244 3H10C11.1046 3 12 3.89543 12 5C12 6.10457 11.1046 7 10 7H6C3.79086 7 2 8.79086 2 11C2 13.2091 3.79086 15 6 15H12.2676C12.6134 15.5978 13.2597 16 14 16C15.1046 16 16 15.1046 16 14C16 12.8954 15.1046 12 14 12C13.2597 12 12.6134 12.4022 12.2676 13H6C4.89543 13 4 12.1046 4 11C4 9.89543 4.89543 9 6 9H10C12.2091 9 14 7.20914 14 5C14 2.79086 12.2091 1 10 1H3.73244C3.38663 0.402199 2.74028 0 2 0C0.895431 0 0 0.895431 0 2C0 3.10457 0.895431 4 2 4Z" fill="#FFA722"/>
</svg>
