<svg width="428" height="255" viewBox="0 0 428 255" fill="none" xmlns="http://www.w3.org/2000/svg">
<path opacity="0.5" d="M109.05 254.9C88.05 254.9 69.3833 249.883 53.05 239.85C36.7167 229.817 23.8833 215.233 14.55 196.1C5.45 176.733 0.900001 153.867 0.900001 127.5C0.900001 101.133 5.45 78.3833 14.55 59.25C23.8833 39.8833 36.7167 25.1833 53.05 15.15C69.3833 5.11666 88.05 0.0999838 109.05 0.0999838C129.817 0.0999838 148.367 5.11666 164.7 15.15C181.033 25.1833 193.75 39.8833 202.85 59.25C212.183 78.3833 216.85 101.133 216.85 127.5C216.85 153.867 212.183 176.733 202.85 196.1C193.75 215.233 181.033 229.817 164.7 239.85C148.367 249.883 129.817 254.9 109.05 254.9ZM109.05 198.2C120.717 198.2 129.933 192.6 136.7 181.4C143.7 169.967 147.2 152 147.2 127.5C147.2 103 143.7 85.15 136.7 73.95C129.933 62.5167 120.717 56.8 109.05 56.8C97.15 56.8 87.7 62.5167 80.7 73.95C73.9333 85.15 70.55 103 70.55 127.5C70.55 152 73.9333 169.967 80.7 181.4C87.7 192.6 97.15 198.2 109.05 198.2ZM427.115 195.05V250H236.365V206.6L328.065 120.85C336.932 112.45 342.882 105.333 345.915 99.5C348.949 93.4333 350.465 87.3667 350.465 81.3C350.465 73.3667 347.782 67.1833 342.415 62.75C337.049 58.3167 329.232 56.1 318.965 56.1C309.865 56.1 301.465 58.2 293.765 62.4C286.299 66.3667 280.115 72.2 275.215 79.9L223.765 51.2C233.332 35.3333 246.749 22.85 264.015 13.75C281.282 4.64999 301.699 0.0999838 325.265 0.0999838C343.932 0.0999838 360.382 3.13332 374.615 9.19999C389.082 15.2666 400.282 24.0166 408.215 35.45C416.382 46.65 420.465 59.7167 420.465 74.65C420.465 87.95 417.549 100.55 411.715 112.45C406.115 124.117 395.149 137.417 378.815 152.35L332.615 195.05H427.115Z" fill="#EDF1F7"/>
</svg>
